<?xml version="1.0" encoding="utf-8"?>
<!-- Generator: Adobe Illustrator 18.0.0, SVG Export Plug-In . SVG Version: 6.00 Build 0)  -->
<!DOCTYPE svg PUBLIC "-//W3C//DTD SVG 1.1//EN" "http://www.w3.org/Graphics/SVG/1.1/DTD/svg11.dtd">
<svg version="1.1" xmlns="http://www.w3.org/2000/svg" xmlns:xlink="http://www.w3.org/1999/xlink" x="0px" y="0px"
	 viewBox="0 0 400.8 551" enable-background="new 0 0 400.8 551" xml:space="preserve">
<g id="BG">
</g>
<g id="BG_Texture">
</g>
<g id="Slipper_1">
	<g>
		<g>
			<path fill="#044437" d="M10.5,144.3c0,0-28.5-63,33.2-119.1c61.7-56.1,96.1-6.7,111.4,35.7c21.7,59.6,7,126.9,38.7,199.6
				c31.7,72.7,55.2,117.6,5.3,141.2c-49.9,23.6-70.6,13.3-89.3-33C91.1,322.4,67.2,259.3,45,218.3C22.7,177.3,10.5,144.3,10.5,144.3
				z"/>
			<path fill="#044437" d="M6.6,147c0,0-28.5-63,33.2-119.1c61.7-56.1,96.1-6.7,111.4,35.7c21.7,59.6,7,126.9,38.7,199.6
				c31.7,72.7,55.2,117.6,5.3,141.2c-49.9,23.6-70.6,13.3-89.3-33C87.2,325.1,63.3,262,41.1,221C18.8,180,6.6,147,6.6,147z"/>
			<path fill="#286A38" d="M148.2,406.1l-2.9,6.2c5.5,1.7,11.6,2,18.5,1.1L148.2,406.1z M98.3,309.5l-15-7c1.3,3.3,2.7,6.5,4,9.8
				l8,3.7l0,0.1l6.5,3l0-0.1l0.1,0l3-6.5l-0.1,0l5.3-11.3l17.9,8.4l0.1-0.2l0.2,0.1l8.4-17.9l17.9,8.4l3-6.5l5.3-11.4l11.3,5.3
				l0,0.1l6.5,3l0-0.1l0.1,0l3-6.5l-0.1,0l5.3-11.3l12.5,5.8c-1.4-3.3-2.9-6.6-4.4-10l-11.6-5.4l-8.3,17.8l-17.8-8.3l-8.4,17.9
				l-17.9-8.4l-8.5,18.1l-18.1-8.5L98.3,309.5z M119.1,366.7l-12.4-5.8c1.1,2.6,2.1,5.2,3.1,7.7c0.3,0.7,0.6,1.3,0.8,2l5.4,2.5
				l0,0.1l6.5,3l0-0.1l0.1,0l3-6.5l-0.1,0l5.3-11.3l17.9,8.4l0.1-0.2l0.2,0.1l8.4-17.9l17.9,8.4l3-6.5l5.3-11.4l11.3,5.3l0,0.1
				l6.5,3l0-0.1l0.1,0l3-6.5l-0.1,0l5.3-11.3l14.2,6.6c-0.8-3-1.8-6.1-2.8-9.2l-14.9-6.9l-8.3,17.8l-17.8-8.3l-8.4,17.9l-17.9-8.4
				l-8.5,18.1l-18.1-8.5L119.1,366.7z M108.7,338.1L95,331.7c1.3,3.3,2.6,6.5,3.9,9.7l6.7,3.1l0,0.1l6.5,3l0-0.1l0.1,0l3-6.5l-0.1,0
				l5.3-11.3l17.9,8.4l0.1-0.2l0.2,0.1l8.4-17.9l17.9,8.4l3-6.5l5.3-11.4l11.3,5.3l0,0.1l6.5,3l0-0.1l0.1,0l3-6.5l-0.1,0l5.3-11.3
				l14.7,6.9c-1.3-3.2-2.6-6.5-4-9.8l-14.1-6.6l-8.3,17.8l-17.8-8.3l-8.4,17.9l-17.9-8.4l-8.5,18.1l-18.1-8.5L108.7,338.1z
				 M113.6,23.2l6.9-14.8c-2-1.4-4-2.6-6.2-3.7l-4.3,9.2L91.9,5.5l-8.3,17.8L65.8,15l-8.4,17.9l-14.7-6.8c-2.6,2.4-5.1,4.8-7.3,7.3
				L31,42.7l-2.7-1.3c-1.6,2-3,3.9-4.4,5.9l10.4,4.8l0.1-0.2l0.2,0.1l8.4-17.9l17.9,8.4l3-6.5l5.3-11.4l11.3,5.3l0,0.1l6.5,3l0-0.1
				l0.1,0l3-6.5l-0.1,0L95.4,15l17.9,8.4l0.1-0.2L113.6,23.2z M76.7,4.3l0.4-0.9c-0.5,0.2-0.9,0.3-1.4,0.5l0.9,0.4L76.7,4.3
				L76.7,4.3z M87.8,280.9l-17-7.9c1.4,3.3,2.8,6.6,4.2,9.9l9.7,4.5l0,0.1l6.5,3l0-0.1l0.1,0l3-6.5l-0.1,0l5.3-11.3l17.9,8.4
				l0.1-0.2l0.2,0.1l8.4-17.9l17.9,8.4l3-6.5l5.3-11.4l11.3,5.3l0,0.1l6.5,3l0-0.1l0.1,0l3-6.5l-0.1,0l5.3-11.3l10.4,4.8
				c-1.2-3.2-2.3-6.3-3.3-9.5l-10.5-4.9l-8.3,17.8l-17.8-8.3l-8.4,17.9l-17.9-8.4l-8.5,18.1l-18.1-8.5L87.8,280.9z M132.4,33.9
				l13.8,6.4c-1.9-3.7-4-7.4-6.3-10.9l-11-5.1l-8.5,18.1l-18.1-8.5L94,51.9l-17.8-8.3l-8.4,17.9l-17.9-8.4l-8.5,18.1l-18.1-8.5
				L15,80.7l-6.3-3c-0.7,2.4-1.4,4.7-1.9,7l5.2,2.4l0,0.1l6.5,3l0-0.1l0.1,0l3-6.5l-0.1,0l5.3-11.3l17.9,8.4l0.1-0.2l0.2,0.1
				l8.4-17.9L71.3,71l3-6.5l5.3-11.4L91,58.4l0,0.1l6.5,3l0-0.1l0.1,0l3-6.5l-0.1,0l5.3-11.3l17.9,8.4l0.1-0.2l0.2,0.1L132.4,33.9z
				 M49.2,215.4l-2.7,5.7c1.4,2.6,2.8,5.3,4.2,8l2-4.3l11.3,5.3l0,0.1l6.5,3l0-0.1l0.1,0l3-6.5l-0.1,0l5.3-11.3l17.9,8.4l0.1-0.2
				l0.2,0.1l8.4-17.9l17.9,8.4l3-6.5l5.3-11.4l11.3,5.3l0,0.1l6.5,3l0-0.1l0.1,0l3-6.5l-0.1,0l5.3-11.3l17.4,8.1
				c-0.6-3.9-1.2-7.8-1.7-11.6l-1.1,2.4l-18.1-8.5l-8.3,17.8l-17.8-8.3l-8.4,17.9l-17.9-8.4l-8.5,18.1l-18.1-8.5L67,223.7
				L49.2,215.4z M38.8,186.8L34,197.1c1.3,2.7,2.7,5.4,4.1,8.1l4.2-8.9l11.3,5.3l0,0.1l6.5,3l0-0.1l0.1,0l3-6.5l-0.1,0l5.3-11.3
				l17.9,8.4l0.1-0.2l0.2,0.1l8.4-17.9l17.9,8.4l3-6.5l5.3-11.4l11.3,5.3l0,0.1l6.5,3l0-0.1l0.1,0l3-6.5l-0.1,0l5.3-11.3l17.9,8.4
				l0.1-0.2l0.2,0.1l5-10.8c-0.4-4.8-0.8-9.6-1.2-14.3l-7.3,15.7l-18.1-8.5l-8.3,17.8l-17.8-8.3l-8.4,17.9l-17.9-8.4l-8.5,18.1
				l-18.1-8.5l-8.3,17.8L38.8,186.8z M174.8,396.4l-7.7,16.5c2.8-0.5,5.8-1.3,8.9-2.2l2.2-4.8l5.1,2.4c2.9-1.1,6-2.3,9.1-3.7
				L174.8,396.4z M10.7,145c0.5,1.3,1.7,4.5,3.6,9.2l7-15.1l11.3,5.3l0,0.1l6.5,3l0-0.1l0.1,0l3-6.5l-0.1,0l5.3-11.3l17.9,8.4
				l0.1-0.2l0.2,0.1l8.4-17.9l17.9,8.4l3-6.5l5.3-11.4l11.3,5.3l0,0.1l6.5,3l0-0.1l0.1,0l3-6.5l-0.1,0l5.3-11.3l17.9,8.4l0.1-0.2
				l0.2,0.1l8.4-17.9l11,5.1c-0.5-2.9-1-5.8-1.6-8.7l-12.8-6l-8.5,18.1l-18.1-8.5l-8.3,17.8L97,100.8l-8.4,17.9l-17.9-8.4l-8.5,18.1
				L44.1,120l-8.3,17.8l-17.8-8.3L10.7,145z M142.8,62.5l15.2,7.1c-0.9-2.9-1.8-5.9-2.9-8.8c-0.1-0.2-0.2-0.4-0.2-0.6L139.3,53
				l-8.5,18.1l-18.1-8.5l-8.3,17.8l-17.8-8.3l-8.4,17.9l-17.9-8.4l-8.5,18.1l-18.1-8.5l-8.3,17.8L7.5,101l-3.6,7.8
				c0,5.4,0.4,10.3,1.1,14.7l6-12.9l11.3,5.3l0,0.1l6.5,3l0-0.1l0.1,0l3-6.5l-0.1,0l5.3-11.3l17.9,8.4l0.1-0.2l0.2,0.1l8.4-17.9
				l17.9,8.4l3-6.5L90,81.7l11.3,5.3l0,0.1l6.5,3l0-0.1l0.1,0l3-6.5l-0.1,0l5.3-11.3l17.9,8.4l0.1-0.2l0.2,0.1L142.8,62.5z
				 M28.3,158.2L22,171.8c1.2,2.7,2.5,5.6,3.9,8.6l5.9-12.7l11.3,5.3l0,0.1l6.5,3l0-0.1l0.1,0l3-6.5l-0.1,0l5.3-11.3l17.9,8.4
				l0.1-0.2l0.2,0.1l8.4-17.9l17.9,8.4l3-6.5l5.3-11.4l11.3,5.3l0,0.1l6.5,3l0-0.1l0.1,0l3-6.5l-0.1,0l5.3-11.3l17.9,8.4l0.1-0.2
				l0.2,0.1l8.4-17.9l4,1.9c-0.3-2.8-0.6-5.6-0.9-8.4l-6.5-3l-8.5,18.1l-18.1-8.5l-8.3,17.8l-17.8-8.3L99,147.3L81.1,139l-8.5,18.1
				l-18.1-8.5l-8.3,17.8L28.3,158.2z M59.6,244l-0.9,1.8c1.3,2.8,2.6,5.7,3.9,8.5l0.4-0.8l11.3,5.3l0,0.1l6.5,3l0-0.1l0.1,0l3-6.5
				l-0.1,0l5.3-11.3l17.9,8.4l0.1-0.2l0.2,0.1l8.4-17.9l17.9,8.4l3-6.5l5.3-11.4l11.3,5.3l0,0.1l6.5,3l0-0.1l0.1,0l3-6.5l-0.1,0
				l5.3-11.3l12.3,5.7c-0.7-3-1.4-5.9-2-8.9l-13.7-6.4l-8.3,17.8l-17.8-8.3l-8.4,17.9l-17.9-8.4l-8.5,18.1l-18.1-8.5l-8.3,17.8
				L59.6,244z M201.1,386.8l-8.2,17.6c2-0.9,4.1-1.8,6.2-2.8c1.4-0.7,2.7-1.3,4-2l1.5-3.2l2.3,1.1c2.5-1.5,4.7-3.1,6.6-4.8
				L201.1,386.8z M129.5,395.3l-8.5-4c3.3,5.2,6.8,9.5,10.6,12.9l1.4,0.6l0-0.1l0.1,0l3-6.5l-0.1,0l5.3-11.3l17.9,8.4l0.1-0.2
				l0.2,0.1l8.4-17.9l17.9,8.4l3-6.5l5.3-11.4l11.3,5.3l0,0.1l6.5,3l0-0.1l0.1,0l3-6.5l-0.1,0l5.3-11.3l7.6,3.5
				c0.1-2.6-0.1-5.3-0.3-8.1l-10.7-5l-8.3,17.9l-17.8-8.3l-8.4,17.9l-17.9-8.4l-8.5,18.1l-18.1-8.5L129.5,395.3z"/>
			<path fill="#549329" d="M84.4,271.4l-17.8-8.3c1.4,3.3,2.9,6.6,4.3,9.9l10.5,4.9l0,0.1l6.5,3l0-0.1l0.1,0l3-6.5l-0.1,0l5.3-11.3
				l17.9,8.4l0.1-0.2l0.2,0.1l8.4-17.9l17.9,8.4l3-6.5l5.3-11.4l11.3,5.3l0,0.1l6.5,3l0-0.1l0.1,0l3-6.5l-0.1,0l5.3-11.3l10.5,4.9
				c-1-3.1-1.9-6.2-2.8-9.2l-11.2-5.2l-8.3,17.8l-17.8-8.3l-8.4,17.9l-17.9-8.4l-8.5,18.1l-18.1-8.5L84.4,271.4z M139.3,53l15.5,7.3
				c-1.2-3.2-2.5-6.5-3.9-9.7l-15.2-7.1l-8.5,18.1l-18.1-8.5L101,71l-17.8-8.3l-8.4,17.9l-17.9-8.4l-8.5,18.1l-18.1-8.5l-8.3,17.8
				L5.2,92c-1,5.9-1.3,11.5-1.3,16.7l3.6-7.8l11.3,5.3l0,0.1l6.5,3l0-0.1l0.1,0l3-6.5l-0.1,0l5.3-11.3l17.9,8.4l0.1-0.2l0.2,0.1
				l8.4-17.9l17.9,8.4l3-6.5l5.3-11.4l11.3,5.3l0,0.1l6.5,3l0-0.1l0.1,0l3-6.5l-0.1,0l5.3-11.3l17.9,8.4l0.1-0.2l0.2,0.1L139.3,53z
				 M94.8,300l-15.6-7.3c1.4,3.3,2.7,6.5,4,9.8l8.5,4l0,0.1l6.5,3l0-0.1l0.1,0l3-6.5l-0.1,0l5.3-11.3l17.9,8.4l0.1-0.2l0.2,0.1
				l8.4-17.9l17.9,8.4l3-6.5l5.3-11.4l11.3,5.3l0,0.1l6.5,3l0-0.1l0.1,0l3-6.5l-0.1,0l5.3-11.3l11.6,5.4c-1.1-2.6-2.3-5.2-3.4-7.9
				c-0.3-0.7-0.6-1.4-0.9-2.1l-10.8-5l-8.3,17.8l-17.8-8.3l-8.4,17.9l-17.9-8.4l-8.5,18.1l-18.1-8.5L94.8,300z M110.2,13.7l4.2-9
				c-2.1-1.1-4.3-2-6.6-2.7l-1.1,2.4l-9.2-4.3c-3.6-0.2-7.3,0-11.2,0.8l-6,12.9L67.4,7.8c-2.8,1.5-5.7,3.3-8.7,5.4l-4.8,10.2
				l-5.3-2.5c-1.6,1.4-3.2,2.8-4.9,4.3c-0.3,0.3-0.6,0.6-1,0.9l14.7,6.8l3-6.5L65.8,15l11.3,5.3l0,0.1l6.5,3l0-0.1l0.1,0l3-6.5
				l-0.1,0l5.3-11.3l17.9,8.4l0.1-0.2L110.2,13.7z M105.2,328.6L91.1,322c1.3,3.3,2.6,6.5,3.9,9.7l7.1,3.3l0,0.1l6.5,3l0-0.1l0.1,0
				l3-6.5l-0.1,0l5.3-11.3l17.9,8.4l0.1-0.2l0.2,0.1l8.4-17.9l17.9,8.4l3-6.5l5.3-11.4l11.3,5.3l0,0.1l6.5,3l0-0.1l0.1,0l3-6.5
				l-0.1,0l5.3-11.3l14.1,6.6c-1.4-3.2-2.8-6.5-4.2-9.9l-13.4-6.2l-8.3,17.8l-17.8-8.3l-8.4,17.9l-17.9-8.4l-8.5,18.1l-18.1-8.5
				L105.2,328.6z M31.1,42.5l4.3-9.1c-2.5,2.7-4.9,5.4-7,8.1l2.5,1.2l0.1-0.2L31.1,42.5z M128.9,24.4l11,5.1
				c-2.9-4.5-6.1-8.7-9.6-12.4l-4.9-2.3L117,33l-18.1-8.5l-8.3,17.8l-17.8-8.3L64.3,52l-17.9-8.4L38,61.8l-18-8.4
				c-0.1,0.2-0.3,0.5-0.4,0.7l-8,17.1L11,70.9c-0.9,2.3-1.7,4.6-2.4,6.9l6.3,2.9l0-0.1l0.1,0l3-6.5l-0.1,0l5.3-11.3l17.9,8.4
				l0.1-0.2l0.2,0.1l8.4-17.9l17.9,8.4l3-6.5l5.3-11.4l11.3,5.3l0,0.1l6.5,3l0-0.1l0.1,0l3-6.5l-0.1,0l5.3-11.3l17.9,8.4l0.1-0.2
				l0.2,0.1L128.9,24.4z M56.1,234.4l-1.4,3c1.3,2.7,2.7,5.6,4,8.4l0.9-1.8l11.3,5.3l0,0.1l6.5,3l0-0.1l0.1,0l3-6.5l-0.1,0l5.3-11.3
				l17.9,8.4l0.1-0.2l0.2,0.1l8.4-17.9l17.9,8.4l3-6.5l5.3-11.4l11.3,5.3l0,0.1l6.5,3l0-0.1l0.1,0l3-6.5l-0.1,0l5.3-11.3l13.7,6.4
				c-0.6-2.9-1.2-5.8-1.7-8.7l-15.4-7.2L153,214l-17.8-8.3l-8.4,17.9l-17.9-8.4l-8.5,18.1l-18.1-8.5L74,242.8L56.1,234.4z
				 M35.3,177.2l-5.4,11.6c1.3,2.7,2.6,5.4,4.1,8.3l4.8-10.3l11.3,5.3l0,0.1l6.5,3l0-0.1l0.1,0l3-6.5l-0.1,0l5.3-11.3l17.9,8.4
				l0.1-0.2l0.2,0.1l8.4-17.9l17.9,8.4l3-6.5l5.3-11.4l11.3,5.3l0,0.1l6.5,3l0-0.1l0.1,0l3-6.5l-0.1,0l5.3-11.3l17.9,8.4l0.1-0.2
				l0.2,0.1l7.2-15.5c-0.3-3.8-0.7-7.6-1-11.3l-1.3-0.6l-8.5,18.1l-18.1-8.5l-8.3,17.8l-17.8-8.3l-8.4,17.9L88.1,158l-8.5,18.1
				l-18.1-8.5l-8.3,17.8L35.3,177.2z M115.6,357.2l-12.8-6c1.3,3.3,2.6,6.5,3.9,9.7l5.9,2.8l0,0.1l6.5,3l0-0.1l0.1,0l3-6.5l-0.1,0
				l5.3-11.3l17.9,8.4l0.1-0.2l0.2,0.1l8.4-17.9l17.9,8.4l3-6.5l5.3-11.4l11.3,5.3l0,0.1l6.5,3l0-0.1l0.1,0l3-6.5l-0.1,0l5.3-11.3
				l14.9,6.9c-1-3.1-2.1-6.2-3.4-9.5l-15-7l-8.3,17.8l-17.8-8.3l-8.4,17.9l-17.9-8.4l-8.5,18.1l-18.1-8.5L115.6,357.2z M10.5,144.3
				c0,0,0.1,0.3,0.3,0.7l7.2-15.4l11.3,5.3l0,0.1l6.5,3l0-0.1l0.1,0l3-6.5l-0.1,0l5.3-11.3l17.9,8.4l0.1-0.2l0.2,0.1l8.4-17.9
				l17.9,8.4l3-6.5l5.3-11.4l11.3,5.3l0,0.1l6.5,3l0-0.1l0.1,0l3-6.5l-0.1,0l5.3-11.3l17.9,8.4l0.1-0.2l0.2,0.1l8.4-17.9l12.8,6
				c-0.6-3-1.3-5.9-2-8.9l-14.3-6.7l-8.5,18.1l-18.1-8.5l-8.3,17.8l-17.8-8.3l-8.4,17.9l-17.9-8.4L58.8,119l-18.1-8.5l-8.3,17.8
				L14.5,120l-7.1,15.2C9,141,10.5,144.3,10.5,144.3z M24.9,148.6l-6.7,14.4c1.2,2.7,2.4,5.6,3.8,8.7l6.4-13.6l11.3,5.3l0,0.1l6.5,3
				l0-0.1l0.1,0l3-6.5l-0.1,0l5.3-11.3l17.9,8.4l0.1-0.2l0.2,0.1l8.4-17.9l17.9,8.4l3-6.5l5.3-11.4l11.3,5.3l0,0.1l6.5,3l0-0.1
				l0.1,0l3-6.5l-0.1,0l5.3-11.3l17.9,8.4l0.1-0.2l0.2,0.1l8.4-17.9l6.5,3c-0.3-2.8-0.7-5.6-1.1-8.4l-8.9-4.1l-8.5,18.1l-18.1-8.5
				l-8.3,17.8l-17.8-8.3l-8.4,17.9l-17.9-8.4l-8.5,18.1L51,139.1L42.7,157L24.9,148.6z M126,385.8l-10.9-5.1
				c1.9,3.9,3.9,7.5,5.9,10.7l2,0.9l0,0.1l6.5,3l0-0.1l0.1,0l3-6.5l-0.1,0l5.3-11.3l17.9,8.4l0.1-0.2l0.2,0.1l8.4-17.9l17.9,8.4
				l3-6.5l5.3-11.4l11.3,5.3l0,0.1l6.5,3l0-0.1l0.1,0l3-6.5l-0.1,0l5.3-11.3l10.7,5c-0.3-2.8-0.7-5.6-1.3-8.5l-12.9-6l-8.3,17.8
				l-17.8-8.3l-8.4,17.9l-17.9-8.4l-8.5,18.1l-18.1-8.5L126,385.8z M45.7,205.8l-3.4,7.4c0.9,1.7,1.8,3.4,2.7,5.1
				c0.5,0.9,1,1.9,1.5,2.8l2.7-5.7l11.3,5.3l0,0.1l6.5,3l0-0.1l0.1,0l3-6.5l-0.1,0l5.3-11.3l17.9,8.4l0.1-0.2l0.2,0.1l8.4-17.9
				l17.9,8.4l3-6.5l5.3-11.4l11.3,5.3l0,0.1l6.5,3l0-0.1l0.1,0l3-6.5l-0.1,0l5.3-11.3l17.9,8.4l0.1-0.2l0.2,0.1l1-2.2
				c-0.6-4.6-1.1-9.1-1.6-13.6l-3,6.4l-18.1-8.5l-8.3,17.8l-17.8-8.3l-8.4,17.9l-17.9-8.4L90,204.8l-18.1-8.5l-8.3,17.8L45.7,205.8z
				 M144.7,396.5l-6,12.9c2.1,1.2,4.3,2.1,6.6,2.8l2.9-6.2l15.7,7.3c1.1-0.1,2.2-0.3,3.3-0.5l7.7-16.5l17.6,8.2
				c0.1-0.1,0.3-0.1,0.4-0.2l2.9-6.2l5.3-11.4l11.3,5.3l0,0.1l1,0.5c7.8-6.6,12.2-14.3,13.8-23.3l-3.4-1.6l-8.3,17.8l-17.8-8.3
				l-8.4,17.9l-17.9-8.4l-8.5,18.1L144.7,396.5z"/>
			<path fill="#044437" d="M91.3,290.4l-16.2-7.6c1.4,3.3,2.7,6.5,4.1,9.8l9.1,4.2l0,0.1l6.5,3l0-0.1l0.1,0l3-6.5l-0.1,0l5.3-11.3
				l17.9,8.4l0.1-0.2l0.2,0.1l8.4-17.9l17.9,8.4l3-6.5l5.3-11.4l11.3,5.3l0,0.1l6.5,3l0-0.1l0.1,0l3-6.5l-0.1,0l5.3-11.3l10.8,5
				c-1.4-3.3-2.7-6.5-3.9-9.7l-10.4-4.8l-8.3,17.8l-17.8-8.3l-8.4,17.9l-17.9-8.4l-8.5,18.1l-18.1-8.5L91.3,290.4z M135.9,43.4
				l15.2,7.1c-1.5-3.4-3.1-6.8-4.8-10.2l-13.8-6.4l-8.5,18.1l-18.1-8.5l-8.3,17.8l-17.8-8.3L71.3,71l-17.9-8.4l-8.5,18.1l-18.1-8.5
				l-8.3,17.8L6.7,84.7c-0.6,2.5-1.1,4.9-1.5,7.2l10.2,4.7l0,0.1l6.5,3l0-0.1l0.1,0l3-6.5l-0.1,0l5.3-11.3l17.9,8.4l0.1-0.2l0.2,0.1
				l8.4-17.9l17.9,8.4l3-6.5l5.3-11.4l11.3,5.3l0,0.1l6.5,3l0-0.1l0.1,0l3-6.5l-0.1,0l5.3-11.3l17.9,8.4l0.1-0.2l0.2,0.1L135.9,43.4
				z M101.7,319l-14.5-6.8c1.3,3.3,2.6,6.5,3.9,9.7l7.6,3.5l0,0.1l6.5,3l0-0.1l0.1,0l3-6.5l-0.1,0l5.3-11.3l17.9,8.4l0.1-0.2
				l0.2,0.1l8.4-17.9l17.9,8.4l3-6.5l5.3-11.4l11.3,5.3l0,0.1l6.5,3l0-0.1l0.1,0l3-6.5l-0.1,0l5.3-11.3l13.4,6.2
				c-1.4-3.2-2.8-6.6-4.3-9.9l-12.5-5.8l-8.3,17.8l-17.8-8.3l-8.4,17.9l-17.9-8.4l-8.5,18.1l-18.1-8.5L101.7,319z M112.1,347.6
				l-13.2-6.2c1.3,3.3,2.6,6.5,3.9,9.7l6.3,3l0,0.1l6.5,3l0-0.1l0.1,0l3-6.5l-0.1,0l5.3-11.3l17.9,8.4l0.1-0.2l0.2,0.1l8.4-17.9
				l17.9,8.4l3-6.5l5.3-11.4l11.3,5.3l0,0.1l6.5,3l0-0.1l0.1,0l3-6.5l-0.1,0l5.3-11.3l15,7c-1.2-3.1-2.4-6.4-3.8-9.7l-14.7-6.9
				l-8.3,17.8l-17.8-8.3l-8.4,17.9l-17.9-8.4l-8.5,18.1l-18.1-8.5L112.1,347.6z M106.7,4.2l1-2.2c-3.3-1-6.7-1.7-10.3-1.9l9,4.2
				l0.1-0.2L106.7,4.2z M57,16.9l1.7-3.7c-3.3,2.2-6.6,4.8-10.1,7.7l5.3,2.5L57,16.9z M14.5,64.6l5-10.6C16,59.8,13.2,65.4,11,71
				l0.4,0.2l0-0.1l0.1,0L14.5,64.6L14.5,64.6z M125.5,14.8l4.9,2.3c-3-3.3-6.3-6.2-9.8-8.7l-7,15L95.4,15l-8.3,17.8l-17.8-8.3
				l-8.4,17.9l-17.9-8.4l-8.5,18.1l-10.6-4.9c-1.4,2-2.8,4-4,6l17.8,8.3l0.1-0.2l0.2,0.1l8.4-17.9L64.3,52l3-6.5l5.3-11.4L84,39.3
				l0,0.1l6.5,3l0-0.1l0.1,0l3-6.5l-0.1,0l5.3-11.3l17.9,8.4l0.1-0.2l0.2,0.1L125.5,14.8z M83.2,7.3l3-6.4c-2.9,0.6-6,1.4-9.1,2.6
				l-0.4,0.8l-0.8-0.4c-2.8,1.1-5.6,2.4-8.5,4l6.2,2.9l0,0.1l6.5,3l0-0.1l0.1,0L83.2,7.3L83.2,7.3z M204.6,396.4l-1.5,3.2
				c1.3-0.7,2.6-1.4,3.8-2.2L204.6,396.4z M21.4,139.1l-7,15.1c1,2.5,2.3,5.5,3.8,8.9l6.7-14.4l11.3,5.3l0,0.1l6.5,3l0-0.1l0.1,0
				l3-6.5l-0.1,0l5.3-11.3l17.9,8.4l0.1-0.2l0.2,0.1l8.4-17.9l17.9,8.4l3-6.5l5.3-11.4l11.3,5.3l0,0.1l6.5,3l0-0.1l0.1,0l3-6.5
				l-0.1,0l5.3-11.3l17.9,8.4l0.1-0.2l0.2,0.1l8.4-17.9l8.9,4.1c-0.4-2.9-0.9-5.7-1.3-8.5l-11-5.1l-8.5,18.1l-18.1-8.5l-8.3,17.8
				l-17.8-8.3l-8.4,17.9l-17.9-8.4L65.7,138l-18.1-8.5l-8.3,17.8L21.4,139.1z M42.2,196.3l-4.2,8.9c1.3,2.6,2.7,5.3,4.2,8l3.4-7.4
				l11.3,5.3l0,0.1l6.5,3l0-0.1l0.1,0l3-6.5l-0.1,0l5.3-11.3l17.9,8.4l0.1-0.2l0.2,0.1l8.4-17.9l17.9,8.4l3-6.5l5.3-11.4l11.3,5.3
				l0,0.1l6.5,3l0-0.1l0.1,0l3-6.5l-0.1,0l5.3-11.3l17.9,8.4l0.1-0.2l0.2,0.1l2.9-6.2c-0.5-4.7-0.9-9.4-1.4-14.1l-5.1,11l-18.1-8.5
				l-8.3,17.8l-17.8-8.3l-8.4,17.9L95,177.1l-8.5,18.1l-18.1-8.5l-8.3,17.8L42.2,196.3z M31.8,167.7l-5.9,12.7
				c1.3,2.7,2.6,5.5,4,8.4l5.4-11.6l11.3,5.3l0,0.1l6.5,3l0-0.1l0.1,0l3-6.5l-0.1,0l5.3-11.3l17.9,8.4l0.1-0.2l0.2,0.1l8.4-17.9
				l17.9,8.4l3-6.5l5.3-11.4l11.3,5.3l0,0.1l6.5,3l0-0.1l0.1,0l3-6.5l-0.1,0l5.3-11.3l17.9,8.4l0.1-0.2l0.2,0.1l8.4-17.9l1.3,0.6
				c-0.3-2.8-0.5-5.5-0.8-8.3l-4-1.9l-8.5,18.1l-18.1-8.5l-8.3,17.8l-17.8-8.3l-8.4,17.9l-17.9-8.4l-8.5,18.1L58,158.2L49.7,176
				L31.8,167.7z M146.3,72.1l14.3,6.7c-0.8-3.1-1.6-6.1-2.5-9.1l-15.2-7.1l-8.5,18.1l-18.1-8.5L107.9,90L90,81.7l-8.4,17.9
				l-17.9-8.4l-8.5,18.1L37.2,101l-8.3,17.8L11,110.5l-6,12.9c0.7,4.6,1.6,8.6,2.4,11.8l7.1-15.2l11.3,5.3l0,0.1l6.5,3l0-0.1l0.1,0
				l3-6.5l-0.1,0l5.3-11.3l17.9,8.4l0.1-0.2l0.2,0.1l8.4-17.9l17.9,8.4l3-6.5l5.3-11.4l11.3,5.3l0,0.1l6.5,3l0-0.1l0.1,0l3-6.5
				l-0.1,0l5.3-11.3l17.9,8.4l0.1-0.2l0.2,0.1L146.3,72.1z M133,404.9l-1.6-0.8c2.4,2.2,4.8,3.9,7.5,5.4l0.7-1.6l-0.1,0l5.3-11.3
				l17.9,8.4l0.1-0.2l0.2,0.1l8.4-17.9l17.9,8.4l3-6.5l5.3-11.4l11.3,5.3l0,0.1l6.5,3l0-0.1l0.1,0l3-6.5l-0.1,0l5.3-11.3l3.4,1.6
				c0.4-2.4,0.7-5,0.7-7.6l-7.6-3.5l-8.3,17.8l-17.8-8.3l-8.4,17.9l-17.9-8.4l-8.5,18.1l-18.1-8.5L133,404.9z M52.6,224.9l-2,4.3
				c1.4,2.7,2.7,5.4,4.1,8.2l1.4-3l11.3,5.3l0,0.1l6.5,3l0-0.1l0.1,0l3-6.5l-0.1,0l5.3-11.3l17.9,8.4l0.1-0.2l0.2,0.1l8.4-17.9
				l17.9,8.4l3-6.5l5.3-11.4l11.3,5.3l0,0.1l6.5,3l0-0.1l0.1,0l3-6.5l-0.1,0l5.3-11.3l15.4,7.2c-0.5-2.9-1-5.7-1.5-8.6l-17.4-8.1
				l-8.3,17.8l-17.8-8.3l-8.4,17.9l-17.9-8.4l-8.5,18.1l-18.1-8.5l-8.3,17.8L52.6,224.9z M178.3,405.9l-2.2,4.8
				c2.3-0.7,4.8-1.5,7.3-2.4L178.3,405.9z M122.5,376.3l-11.9-5.6c1.5,3.5,3,6.9,4.5,10l4.4,2l0,0.1l6.5,3l0-0.1l0.1,0l3-6.5l-0.1,0
				l5.3-11.3l17.9,8.4l0.1-0.2l0.2,0.1l8.4-17.9l17.9,8.4l3-6.5l5.3-11.4l11.3,5.3l0,0.1l6.5,3l0-0.1l0.1,0l3-6.5l-0.1,0l5.3-11.3
				l12.9,6c-0.6-2.9-1.3-5.9-2.1-8.9l-14.2-6.6l-8.3,17.8l-17.8-8.3l-8.4,17.9l-17.9-8.4l-8.5,18.1l-18.1-8.5L122.5,376.3z
				 M63.1,253.5l-0.4,0.8c1.3,2.9,2.6,5.8,3.9,8.7l11.3,5.3l0,0.1l6.5,3l0-0.1l0.1,0l3-6.5l-0.1,0l5.3-11.3l17.9,8.4l0.1-0.2
				l0.2,0.1l8.4-17.9l17.9,8.4l3-6.5l5.3-11.4l11.3,5.3l0,0.1l6.5,3l0-0.1l0.1,0l3-6.5l-0.1,0l5.3-11.3l11.2,5.2c-0.9-3-1.7-6-2.4-9
				l-12.3-5.7l-8.3,17.8l-17.8-8.3l-8.4,17.9l-17.9-8.4l-8.5,18.1L89.2,244l-8.3,17.8L63.1,253.5z"/>
			<path fill="#044437" d="M84.6,76.5c0,0,3-6,5.6-8.5c2.6-2.4,5.4-3.5,8.3,0.1c2.8,3.7,3.5,5.3,0.8,7.9l-5.8,9.4L84.6,76.5z"/>
			<path fill="#044437" d="M90.2,95.9c0,0-15.7,3.9-26,20.2c-10.4,16.4-23.9,47.2-17.3,62c6.6,14.7,37.5,53.7,47.7,71.5
				c10.1,17.8,25.2,45.8,16.5,60.4c-4,6.2-9.7-3-18.8-24.3c-9.1-21.3-25.7-51.3-34.4-66.4c-8.7-15-39-61.7-4-116.1
				c28.5-42.3,51.5-26.9,74.2-14.2c22.7,12.7,55.4,49.1,57.3,96.5c0.3,30-2.8,41.4-3.3,61.5c-0.5,20.1-4.1,36.4-9.1,35.6
				c-5-0.8-10.9-13.6-9.1-39.5c1.8-25.9,16.7-81.6,4.1-98.9c-12.6-17.3-36.5-33.7-45-39.9C114.5,98,99.9,93.7,90.2,95.9z"/>
		</g>
		<g>
			<path fill="#044437" d="M395.4,252.1c0,0,13.4-67.8-59.4-108.5c-72.8-40.7-95.1,15.3-100.4,60c-7.6,63,22,125.1,7.6,203.2
				c-14.4,78-27.1,127,26.9,138.7c54,11.7,71.7-3.1,79.5-52.4c7.8-49.3,16.6-116.2,29-161.2C391,287,395.4,252.1,395.4,252.1z"/>
			<path fill="#044437" d="M399.9,253.8c0,0,13.4-67.8-59.4-108.5c-72.8-40.7-95.1,15.2-100.4,60c-7.6,63,22,125.2,7.6,203.2
				c-14.4,78-27.1,127,26.9,138.7c54,11.7,71.7-3.1,79.5-52.3c7.8-49.3,16.6-116.2,29-161.2C395.4,288.7,399.9,253.8,399.9,253.8z"
				/>
			<path fill="#286A38" d="M307.1,549c6.9-0.7,12.8-2.4,17.8-5.3l-4.2-5.4L307.1,549z M335.3,417.4l-15.7,12.3L307.2,414l-15.6,12.2
				l-12.2-15.6l-15.5,12.2l-12.2-15.5l-10.1,7.9c-0.7,3.6-1.3,7.2-2,10.7l10.9-8.5l7.7,9.9l-0.1,0.1l4.4,5.6l0.1-0.1l0,0.1l5.6-4.4
				l-0.1-0.1l9.9-7.7l7.8,9.9l4.4,5.6l15.6-12.2l12.2,15.6l0.2-0.1l0.1,0.2l15.6-12.2l7.7,9.8l-0.1,0.1l4.4,5.6l0.1-0.1l0.1,0.1
				l5.6-4.4l-0.1-0.1l7-5.5c0.5-3.5,1.1-6.9,1.7-10.4l-13,10.2L335.3,417.4z M328,477.9l-15.7,12.3l-12.4-15.7l-15.6,12.2
				l-12.2-15.6l-15.5,12.2l-12.2-15.5l-12.9,10.1c-0.3,3.3-0.5,6.5-0.7,9.6l12.3-9.7l7.7,9.8l-0.1,0.1l4.4,5.6l0.1-0.1l0.1,0.1
				l5.6-4.4l-0.1-0.1l9.9-7.7l7.8,9.9l4.4,5.6l15.6-12.2l12.2,15.6l0.2-0.1l0.1,0.2l15.6-12.2l7.7,9.8l-0.1,0.1l4.4,5.6l0.1-0.1
				l0.1,0.1l5.6-4.4l-0.1-0.1l4.7-3.7c0.1-0.7,0.2-1.4,0.4-2.2c0.4-2.7,0.9-5.5,1.3-8.3l-10.8,8.4L328,477.9z M331.6,447.6
				L315.9,460l-12.3-15.7L288,456.4l-12.2-15.6L260.3,453l-12.2-15.5l-12.3,9.6c-0.6,3.6-1.2,7.1-1.7,10.5l12.8-10l7.7,9.8l-0.1,0.1
				l4.4,5.6l0.1-0.1l0.1,0.1l5.6-4.4l-0.1-0.1l9.8-7.7l7.8,9.9l4.4,5.6l15.6-12.2l12.2,15.6l0.2-0.1l0.1,0.2l15.6-12.2l7.7,9.9
				l-0.1,0l4.4,5.6l0.1-0.1l0.1,0.1l5.6-4.4l-0.1-0.1l5.9-4.6c0.5-3.4,1-6.9,1.6-10.3l-11.8,9.3L331.6,447.6z M267.7,157.4l0.1,0.2
				l15.6-12.2l7.7,9.8l-0.1,0.1l4.4,5.6l0.1-0.1l0.1,0.1l5.6-4.4l-0.1-0.1l9.8-7.7l7.8,9.9l4.4,5.6l15.6-12.2l12.2,15.6l0.2-0.1
				l0.1,0.2l9-7c-1.8-1.6-3.7-3.2-5.6-4.7l-2.3,1.8l-6.4-8.1c-2.8-1.8-5.7-3.7-8.8-5.4l-12.7,10l-12.2-15.6l-15.5,12.2l-12.2-15.5
				l-15.7,12.4l-6.3-8c-1.8,1.5-3.6,3.2-5.2,5l10.1,12.8L267.7,157.4z M299.2,130.7L299.2,130.7l0.8-0.5c-0.5-0.1-1-0.1-1.5-0.2
				L299.2,130.7L299.2,130.7z M338.9,387.2l-15.7,12.4l-12.4-15.7L295.3,396L283,380.4l-15.5,12.2l-12.2-15.5l-9.1,7.2
				c-0.3,3.3-0.7,6.6-1.1,10l9-7.1l7.7,9.8l-0.1,0.1l4.4,5.6l0.1-0.1l0,0.1l5.6-4.4l-0.1-0.1l9.8-7.7l7.8,9.9l4.4,5.6l15.6-12.2
				l12.2,15.6l0.2-0.1l0.1,0.2l15.6-12.2l7.7,9.8l-0.1,0.1l4.4,5.6l0.1-0.1l0.1,0.1l5.6-4.4l-0.1-0.1l8.4-6.6
				c0.6-3.5,1.2-7.1,1.9-10.6l-14.7,11.5L338.9,387.2z M263.9,187.8l0.2-0.1l0.1,0.2l15.6-12.2l7.7,9.9l-0.1,0.1l4.4,5.6l0.1-0.1
				l0.1,0.1l5.6-4.4l-0.1-0.1l9.9-7.7l7.8,9.9l4.4,5.6l15.6-12.2l12.2,15.6l0.2-0.1l0.1,0.2l15.6-12.2l7.7,9.9l-0.1,0.1l4.4,5.6
				l0.1-0.1l0.1,0.1l5.6-4.4l-0.1-0.1l4.5-3.6c-1.1-2.1-2.2-4.3-3.5-6.4l-5.5,4.3l-12.2-15.5L348.7,188l-12.4-15.7l-15.6,12.2
				l-12.2-15.6l-15.5,12.2L281,165.6l-15.7,12.4l-12.3-15.7l-9.5,7.5c-1.4,3.9-2.6,7.9-3.7,12l12-9.4L263.9,187.8z M358.4,342.3
				l-12.2-15.5l-15.7,12.4l-12.3-15.7l-15.6,12.2L290.4,320l-15.5,12.2l-12.2-15.5L247,329l-1.6-2.1c0.4,3.9,0.7,7.7,1,11.7
				l15.1-11.9l7.7,9.9l-0.1,0.1l4.4,5.6l0.1-0.1l0,0.1l5.6-4.4l-0.1-0.1l9.9-7.7l7.8,9.9l4.4,5.6l15.6-12.2l12.2,15.6l0.2-0.1
				l0.1,0.2l15.6-12.2l7.7,9.8l-0.1,0.1l4.4,5.6l0.1-0.1l0.1,0.1l5.6-4.4l-0.1-0.1l9.8-7.7l2.9,3.7c0.7-3,1.5-5.9,2.2-8.8l-3.9-5
				L358.4,342.3z M362,312l-12.2-15.5l-15.7,12.4l-12.3-15.7l-15.6,12.2L294,289.8l-15.5,12.2l-12.2-15.5l-15.7,12.3l-10.7-13.7
				c0.7,4.7,1.4,9.4,2,14.2l7.3,9.3l0.2-0.1l0.1,0.2l15.6-12.2l7.7,9.8l-0.1,0.1l4.4,5.6l0.1-0.1l0,0.1l5.6-4.4l-0.1-0.1l9.8-7.7
				l7.8,9.9l4.4,5.6l15.6-12.2l12.2,15.6l0.2-0.1l0.1,0.2l15.6-12.2l7.7,9.8l-0.1,0.1l4.4,5.6l0.1-0.1l0.1,0.1l5.6-4.4l-0.1-0.1
				l9.8-7.7l6.1,7.7c0.8-3,1.5-6,2.2-8.9l-7-9L362,312z M277.2,546.9c3.4,0.6,6.6,1.1,9.7,1.5l4.4-3.4l3.2,4.1
				c3.2,0.2,6.3,0.2,9.2,0.1l-11.2-14.3L277.2,546.9z M384.8,239.4l-15.5,12.2l-12.2-15.5l-15.7,12.3l-12.4-15.7l-15.6,12.2
				l-12.2-15.6l-15.5,12.2L273.7,226l-15.7,12.4l-12.4-15.7l-11.1,8.7c0.1,2.9,0.2,5.9,0.4,8.8l9.5-7.5l12.2,15.6l0.2-0.1l0.1,0.2
				l15.6-12.2l7.7,9.8l-0.1,0.1l4.4,5.6l0.1-0.1l0.1,0.1l5.6-4.4l-0.1-0.1l9.8-7.7l7.8,9.9l4.4,5.6l15.6-12.2l12.2,15.6l0.2-0.1
				l0.1,0.2l15.6-12.2l7.7,9.8l-0.1,0.1l4.4,5.6l0.1-0.1l0.1,0.1l5.6-4.4l-0.1-0.1l9.8-7.7l10.3,13.1c0.8-4.9,1.3-8.3,1.5-9.7
				L384.8,239.4z M260.2,218l0.2-0.1l0.1,0.2l15.6-12.2l7.7,9.9l-0.1,0.1l4.4,5.6l0.1-0.1l0.1,0.1l5.6-4.4l-0.1-0.1l9.8-7.7l7.8,9.9
				l4.4,5.6l15.6-12.2l12.2,15.6l0.2-0.1l0.1,0.2l15.6-12.2l7.7,9.9l-0.1,0.1l4.4,5.6l0.1-0.1l0.1,0.1l5.6-4.4l-0.1-0.1l9.8-7.7
				l8.8,11.2c-0.4-4.4-1.1-9.3-2.3-14.5l-5.3-6.7L373,221.4l-12.2-15.5l-15.7,12.4l-12.4-15.7l-15.6,12.2L305,199.1l-15.5,12.2
				l-12.2-15.5l-15.7,12.4l-12.4-15.7L235.7,203c0,0.2-0.1,0.4-0.1,0.7c-0.4,3.1-0.6,6.1-0.8,9.2l13.2-10.3L260.2,218z M365.7,281.8
				l-12.2-15.5l-15.7,12.4l-12.4-15.7l-15.6,12.2l-12.2-15.6l-15.5,12.2L270,256.2l-15.7,12.4l-12.4-15.7l-5.7,4.4
				c0.3,2.8,0.6,5.6,1,8.3l3.5-2.7l12.2,15.6l0.2-0.1l0.1,0.2l15.6-12.2l7.7,9.8l-0.1,0.1l4.4,5.6l0.1-0.1l0.1,0.1l5.6-4.4l-0.1-0.1
				l9.9-7.7l7.8,9.9l4.4,5.6l15.6-12.2l12.2,15.6l0.2-0.1l0.1,0.2l15.6-12.2l7.7,9.9l-0.1,0.1l4.4,5.6l0.1-0.1l0.1,0.1l5.6-4.4
				l-0.1-0.1l9.9-7.7l8.6,11c0.7-3.2,1.3-6.3,1.9-9.2l-9.3-11.8L365.7,281.8z M354.7,372.5L342.6,357l-15.7,12.3l-12.3-15.7
				l-15.6,12.2l-12.2-15.6l-15.5,12.2l-12.2-15.5l-11.9,9.3c0.1,3,0.1,6,0,9.1l10.6-8.4l7.7,9.8l-0.1,0.1l4.4,5.6l0.1-0.1l0,0.1
				l5.7-4.4l-0.1-0.1l9.9-7.7l7.8,9.9l4.4,5.6l15.6-12.2l12.2,15.6l0.2-0.1l0.1,0.2l15.6-12.2l7.7,9.8l-0.1,0.1l4.4,5.6l0.1-0.1
				l0.1,0.1l5.6-4.4l-0.1-0.1l9.8-7.7l0.6,0.7c0.6-3.1,1.3-6.2,1.9-9.2l-1.2-1.6L354.7,372.5z M254,540c2.3,1.2,4.8,2.3,7.6,3.2
				l2-1.5l2.2,2.8c1.4,0.4,2.8,0.7,4.3,1.1c2.3,0.5,4.5,0.9,6.7,1.3l-12-15.3L254,540z M324.3,508.1l-15.7,12.3l-12.4-15.7
				l-15.6,12.2l-12.2-15.6l-15.5,12.2L240.8,498l-9.3,7.3c0.4,2.8,0.9,5.4,1.5,7.9l6.6-5.2l7.7,9.8l-0.1,0.1l4.4,5.6l0.1-0.1
				l0.1,0.1l5.6-4.4l-0.1-0.1l9.8-7.7l7.8,9.9l4.4,5.6l15.6-12.2l12.2,15.6l0.2-0.1l0.1,0.2l15.6-12.2l7.7,9.8l-0.1,0.1l4.4,5.6
				l0.1-0.1l0.1,0.1l1.2-0.9c2.9-4.2,5.3-9.2,7.4-15l-7.4,5.8L324.3,508.1z"/>
			<path fill="#549329" d="M340.1,377.1l-15.7,12.4L312,373.7l-15.6,12.2l-12.2-15.6l-15.5,12.2L256.6,367l-9.7,7.6
				c-0.2,3.2-0.4,6.4-0.6,9.6l9.1-7.2l7.7,9.8l-0.1,0.1l4.4,5.6l0.1-0.1l0.1,0.1l5.6-4.4l-0.1-0.1l9.8-7.7l7.8,9.9l4.4,5.6
				l15.6-12.2l12.2,15.6l0.2-0.1l0.1,0.2l15.6-12.2l7.7,9.8l-0.1,0.1l4.4,5.6l0.1-0.1l0.1,0.1l5.6-4.4l-0.1-0.1l9.1-7.1
				c0.6-3.6,1.3-7.1,2-10.7l-15.5,12.1L340.1,377.1z M261.4,207.9l0.2-0.1l0.1,0.2l15.6-12.2l7.7,9.9l-0.1,0.1l4.4,5.6l0.1-0.1
				l0,0.1l5.7-4.4l-0.1-0.1l9.8-7.7l7.8,9.9l4.4,5.6l15.6-12.2l12.2,15.6l0.2-0.1l0.1,0.2l15.6-12.2l7.7,9.8l-0.1,0.1l4.4,5.6
				l0.1-0.1l0.1,0.1l5.6-4.4l-0.1-0.1l9.8-7.7l5.3,6.7c-1.2-5.1-2.8-10.5-5.1-16l-14.5,11.3L362,195.8l-15.7,12.4l-12.4-15.7
				l-15.6,12.2l-12.2-15.6l-15.5,12.2l-12.2-15.5l-15.7,12.4l-12.4-15.7l-13.2,10.3c-0.6,3.5-1.1,6.9-1.6,10.3l13.5-10.6
				L261.4,207.9z M336.5,407.3l-15.7,12.4l-12.4-15.7l-15.6,12.2l-12.2-15.6l-15.5,12.2L253,397.2l-9.4,7.4
				c-0.1,0.7-0.2,1.5-0.4,2.2c-0.5,2.9-1.1,5.7-1.6,8.4l10.1-7.9l7.7,9.8l-0.1,0.1l4.4,5.6l0.1-0.1l0.1,0.1l5.6-4.4l-0.1-0.1
				l9.9-7.7l7.8,9.9l4.4,5.6l15.6-12.2l12.2,15.6l0.2-0.1l0.1,0.2l15.6-12.2l7.7,9.8l-0.1,0.1l4.4,5.6l0.1-0.1l0,0.1l5.6-4.4
				l-0.1-0.1l7.4-5.8c0.6-3.5,1.1-7,1.7-10.5l-13.5,10.6L336.5,407.3z M268.9,147.4l0.1,0.2l15.6-12.2l7.7,9.8l-0.1,0.1l4.4,5.6
				l0.1-0.1l0.1,0.1l5.6-4.4l-0.1-0.1l9.8-7.7l7.8,9.9l4.4,5.6l12.7-10c-0.4-0.2-0.8-0.4-1.2-0.7c-2-1.1-3.9-2.1-5.7-3l-4.6,3.6
				l-6.9-8.8c-3.4-1.3-6.6-2.4-9.7-3.2l-11.1,8.7l-8.8-11.2c-4,0.2-7.7,0.8-11.1,1.8l-8,6.3l-1.6-2.1c-2.1,1.2-4,2.6-5.8,4.2
				l6.1,7.8L268.9,147.4z M332.8,437.6l-15.7,12.3l-12.4-15.7l-15.6,12.2L277,430.8L261.5,443l-12.2-15.5l-11.6,9.1
				c-0.7,3.6-1.3,7.1-1.9,10.6l12.3-9.6l7.7,9.8l-0.1,0.1l4.4,5.6l0.1-0.1l0.1,0.1l5.6-4.4l-0.1-0.1l9.8-7.7l7.8,9.9l4.4,5.6
				l15.6-12.2l12.2,15.6l0.2-0.1l0.1,0.2l15.6-12.2l7.7,9.9l-0.1,0.1l4.4,5.6l0.1-0.1l0.1,0.1l5.6-4.4l-0.1-0.1l6.2-4.9
				c0.5-3.4,1-6.9,1.6-10.4l-12.2,9.6L332.8,437.6z M352.4,157.5l0.1,0.2l2.1-1.7c-2.7-2.1-5.6-4.2-8.7-6.3l6.2,7.9L352.4,157.5z
				 M265.1,177.7l0.2-0.1l0.1,0.2l15.6-12.2l7.7,9.8l-0.1,0.1l4.4,5.6l0.1-0.1l0.1,0.1l5.6-4.4l-0.1-0.1l9.9-7.7l7.8,9.9l4.4,5.6
				l15.6-12.2l12.2,15.6l0.2-0.1l0.1,0.2l15.6-12.2l7.7,9.8l-0.1,0.1l4.4,5.6l0.1-0.1l0.1,0.1l5.5-4.3c-1.2-2-2.5-4.1-3.9-6.1
				l-0.4,0.3l-11.7-14.9c-0.2-0.2-0.4-0.4-0.6-0.6l-15.7,12.3l-12.3-15.7L322,174.4l-12.2-15.6L294.3,171l-12.2-15.5l-15.7,12.3
				l-12.4-15.7l-4.2,3.3c-2.5,4.4-4.7,9.2-6.5,14.2l9.5-7.5L265.1,177.7z M355.9,362.4l-12.2-15.5L328,359.3l-12.3-15.7l-15.6,12.2
				l-12.2-15.6l-15.5,12.2l-12.2-15.5l-13.4,10.5c0.1,2.9,0.2,5.9,0.3,8.9l11.9-9.3l7.7,9.8l-0.1,0.1l4.4,5.6l0.1,0l0.1,0.1l5.6-4.4
				l0-0.1l9.8-7.7l7.8,9.9l4.4,5.6l15.6-12.2l12.2,15.6l0.2-0.1l0.1,0.2l15.6-12.2l7.7,9.9l-0.1,0.1l4.4,5.6l0.1-0.1l0.1,0.1
				l5.6-4.4l-0.1-0.1l9.9-7.7l1.2,1.6c0.7-3.1,1.3-6.1,2-9.1l-2-2.6L355.9,362.4z M363.2,302l-12.2-15.5l-15.7,12.3L323,283.1
				l-15.6,12.2l-12.2-15.6l-15.5,12.2l-12.2-15.5l-15.7,12.3L239.5,273l-1.2,0.9c0.5,3.7,1,7.5,1.6,11.2l10.6,13.5l0.2-0.1l0.1,0.2
				l15.6-12.2l7.7,9.8l-0.1,0.1l4.4,5.6l0.1-0.1l0,0.1l5.7-4.4l-0.1-0.1l9.8-7.7l7.8,9.9l4.4,5.6l15.6-12.2l12.2,15.6l0.2-0.1
				l0.1,0.2l15.6-12.2l7.7,9.8l-0.1,0.1l4.4,5.6l0.1-0.1l0.1,0.1l5.6-4.4l-0.1-0.1l9.9-7.7l7,9c0.7-3.1,1.4-6.1,2.1-9l-7.9-10
				L363.2,302z M329.2,467.8l-15.7,12.4l-12.4-15.7l-15.6,12.2L273.3,461l-15.5,12.2l-12.2-15.5l-13,10.2c-0.4,3.4-0.8,6.8-1.1,10
				l12.9-10.1l7.7,9.8l-0.1,0.1l4.4,5.6l0.1-0.1l0.1,0.1l5.6-4.4l-0.1-0.1l9.9-7.7l7.8,9.9l4.4,5.6l15.6-12.2l12.2,15.6l0.2-0.1
				l0.1,0.2l15.6-12.2l7.7,9.9l-0.1,0.1l4.4,5.6l0.1-0.1l0.1,0.1l5.6-4.4l-0.1-0.1l5.1-4c0.5-3.4,1.1-6.8,1.6-10.4l-11.1,8.7
				L329.2,467.8z M396.4,242.5L386,229.4l-15.5,12.2L358.4,226l-15.7,12.3l-12.4-15.7l-15.6,12.2l-12.2-15.6L287,231.4l-12.2-15.5
				l-15.7,12.3l-12.3-15.7l-12.4,9.7c-0.1,3,0,6.1,0,9.1l11.1-8.7l12.2,15.6l0.2-0.1l0.1,0.2l15.6-12.2l7.7,9.8l-0.1,0.1l4.4,5.6
				l0.1-0.1l0.1,0.1l5.6-4.4l-0.1-0.1l9.9-7.7l7.8,9.9l4.4,5.6l15.6-12.2l12.2,15.6l0.2-0.1l0.1,0.2l15.6-12.2l7.7,9.8l-0.1,0.1
				l4.4,5.6l0.1,0l0.1,0.1l5.6-4.4l-0.1-0.1l9.8-7.7l10.5,13.4c0.1-0.5,0.1-0.8,0.1-0.8S396.1,248.5,396.4,242.5z M366.9,271.7
				l-12.2-15.5L339,268.6l-12.4-15.7l-15.6,12.2l-12.2-15.6l-15.5,12.2l-12.2-15.5l-15.7,12.4l-12.4-15.7l-7.7,6
				c0.2,2.8,0.5,5.6,0.8,8.5l5.7-4.4l12.2,15.6l0.2-0.1l0.1,0.2l15.6-12.2l7.7,9.8l-0.1,0.1l4.4,5.6l0.1-0.1l0,0.1l5.6-4.4l-0.1-0.1
				l9.8-7.7l7.8,9.9l4.4,5.6l15.6-12.2l12.2,15.6l0.2-0.1l0.1,0.2l15.6-12.2l7.7,9.8l-0.1,0.1l4.4,5.6l0.1-0.1l0.1,0.1l5.6-4.4
				l-0.1-0.1l9.8-7.7l9.3,11.8c0.7-3.4,1.2-6.5,1.8-9.4l-9.8-12.5L366.9,271.7z M325.5,498l-15.7,12.3l-12.3-15.7l-15.6,12.2
				l-12.2-15.6l-15.5,12.2L242,487.9l-11.2,8.8c0.1,3,0.3,5.9,0.7,8.6l9.3-7.3l7.7,9.9l-0.1,0.1l4.4,5.6l0.1-0.1l0.1,0.1l5.6-4.4
				l-0.1-0.1l9.9-7.7l7.8,9.9l4.4,5.6l15.6-12.2l12.2,15.6l0.2-0.1l0.1,0.2l15.6-12.2l7.7,9.8L332,518l4.4,5.6l0.1-0.1l0.1,0.1
				l5.6-4.4l-0.1-0.1l1.7-1.3c1.2-3.6,2.3-7.5,3.3-11.7l-9.5,7.4L325.5,498z M359.6,332.2l-12.2-15.5L331.7,329l-12.4-15.7
				l-15.6,12.2l-12.2-15.6l-15.5,12.2l-12.2-15.5l-15.7,12.4l-4.4-5.6c0.6,4.5,1.1,9,1.5,13.6l1.5,1.9l0.2-0.1l0.1,0.2l15.6-12.2
				l7.7,9.8l-0.1,0.1l4.4,5.6l0.1-0.1l0.1,0.1l5.6-4.4l-0.1-0.1l9.8-7.7l7.8,9.9l4.4,5.6l15.6-12.2l12.2,15.6l0.2-0.1l0.1,0.2
				l15.6-12.2l7.7,9.8l-0.1,0.1l4.4,5.6l0.1-0.1l0,0.1l5.6-4.4l-0.1-0.1l9.8-7.7l3.9,5c0.3-1,0.6-2.1,0.8-3.1c0.5-1.9,1-3.7,1.5-5.5
				l-5-6.4L359.6,332.2z M306.1,540.6l-12.4-15.7L278.2,537L266,521.5l-15.5,12.2l-12.2-15.5l-2.9,2.3c3.6,8.4,9.6,14.9,18.7,19.6
				l0.9-0.7l-0.1-0.1l9.9-7.7l7.8,9.9l4.2,5.4c0.2,0,0.3,0.1,0.4,0.1l15.3-12l11.2,14.3c1.1-0.1,2.2-0.1,3.3-0.2l13.6-10.7l4.2,5.4
				c2.1-1.2,4-2.6,5.8-4.2l-8.8-11.2L306.1,540.6z"/>
			<path fill="#044437" d="M337.7,397.3L322,409.6l-12.3-15.7L294,406.1l-12.2-15.6l-15.5,12.2l-12.2-15.5l-9,7.1
				c-0.4,3.4-1,6.9-1.6,10.4l9.4-7.4l7.7,9.9l-0.1,0.1l4.4,5.6l0.1-0.1l0.1,0.1l5.6-4.4l-0.1-0.1l9.9-7.7l7.8,9.9l4.4,5.6l15.6-12.2
				l12.2,15.6l0.2-0.1l0.1,0.2l15.6-12.2l7.7,9.9l-0.1,0.1l4.4,5.6l0.1-0.1l0.1,0.1l5.6-4.4l-0.1-0.1l7.9-6.2
				c0.6-3.5,1.2-7,1.8-10.5l-14.1,11L337.7,397.3z M262.6,197.9l0.2-0.1l0.1,0.2l15.6-12.2l7.7,9.8l-0.1,0.1l4.4,5.6l0.1-0.1
				l0.1,0.1l5.6-4.4l-0.1-0.1l9.8-7.7l7.8,9.9l4.4,5.6l15.6-12.2l12.2,15.6l0.2-0.1l0.1,0.2l15.6-12.2l7.7,9.9l-0.1,0.1l4.4,5.6
				l0.1-0.1l0.1,0.1l5.6-4.4l-0.1-0.1l8.8-6.9c-0.9-2.2-1.9-4.5-3.1-6.7l-10.2,8l-12.2-15.5l-15.7,12.4l-12.4-15.7l-15.6,12.2
				L307.4,179l-15.5,12.2l-12.2-15.5L264,188l-12.4-15.7l-12,9.4c-0.9,3.6-1.7,7.3-2.4,11l13.2-10.3L262.6,197.9z M334,427.5
				l-15.7,12.3l-12.3-15.7l-15.6,12.2l-12.2-15.6l-15.5,12.2l-12.2-15.5l-10.9,8.5c-0.7,3.6-1.3,7.2-2,10.7l11.6-9.1l7.7,9.8
				l-0.1,0.1l4.4,5.6l0.1-0.1l0.1,0.1l5.6-4.4l-0.1-0.1l9.9-7.7l7.8,9.9l4.4,5.6l15.6-12.2l12.2,15.6l0.2-0.1l0.1,0.2l15.6-12.2
				l7.7,9.8l-0.1,0.1l4.4,5.6l0.1-0.1l0.1,0.1l5.6-4.4l-0.1-0.1l6.6-5.2c0.5-3.4,1.1-6.9,1.6-10.4l-12.6,9.9L334,427.5z
				 M330.4,457.7l-15.7,12.3l-12.3-15.7l-15.6,12.2L274.5,451L259,463.1l-12.2-15.5l-12.8,10c-0.5,3.5-1,6.9-1.5,10.3l13-10.2
				l7.7,9.8l-0.1,0.1l4.4,5.6l0.1-0.1l0,0.1l5.6-4.4l-0.1-0.1l9.8-7.7l7.8,9.9l4.4,5.6l15.6-12.2l12.2,15.6l0.2-0.1l0.1,0.2
				l15.6-12.2l7.7,9.8l-0.1,0.1l4.4,5.6l0.1-0.1l0.1,0.1l5.6-4.4l-0.1-0.1l5.5-4.3c0.5-3.4,1-6.9,1.6-10.4l-11.5,9L330.4,457.7z
				 M270.1,137.3l0.1,0.2l7.8-6.1c-3.5,1-6.7,2.4-9.6,4.2l1.5,1.9L270.1,137.3z M325.7,144.2l4.6-3.6c-4-2-7.9-3.8-11.6-5.2l2.5,3.2
				L325.7,144.2z M373.4,175.5l4.4,5.6l0.1-0.1l0.1,0.1l0.4-0.3c-3.4-4.9-7.4-9.8-12.1-14.6L373.4,175.5L373.4,175.5z M266.3,167.7
				l0.2-0.1l0.1,0.2l15.6-12.2l7.7,9.8l-0.1,0.1l4.4,5.6l0.1-0.1l0,0.1l5.6-4.4l-0.1-0.1l9.9-7.7l7.8,9.9l4.4,5.6l15.6-12.2
				l12.2,15.6l0.2-0.1l0.1,0.2l15.5-12.1c-1.7-1.7-3.4-3.3-5.3-5l-9.2,7.2l-12.4-15.7l-15.6,12.2L311,148.8l-15.5,12.2l-12.2-15.5
				l-15.7,12.3l-10.2-13c-2.8,3.2-5.4,6.8-7.6,10.6l4.2-3.3L266.3,167.7z M293.5,135.2l4.4,5.6l0.1-0.1l0,0.1l5.6-4.4l-0.1-0.1
				l5.4-4.3c-3.2-0.9-6.2-1.5-9.1-1.9l-0.7,0.5l-0.6-0.7c-3.3-0.4-6.5-0.5-9.4-0.4L293.5,135.2L293.5,135.2z M261.6,543.2
				c1.3,0.5,2.7,0.9,4.2,1.3l-2.2-2.8L261.6,543.2z M368.1,261.7L356,246.2l-15.7,12.4l-12.3-15.7L312.3,255l-12.2-15.6l-15.5,12.2
				l-12.2-15.5l-15.7,12.4l-12.3-15.7l-9.5,7.5c0.2,2.9,0.4,5.7,0.6,8.6l7.7-6l12.2,15.6l0.2-0.1l0.1,0.2l15.6-12.2l7.7,9.8
				l-0.1,0.1l4.4,5.6l0.1-0.1l0.1,0.1l5.6-4.4l-0.1-0.1l9.9-7.7l7.8,9.9l4.4,5.6l15.6-12.2l12.2,15.6l0.2-0.1l0.1,0.2l15.6-12.2
				l7.7,9.8l-0.1,0.1l4.4,5.6l0.1-0.1l0,0.1l5.7-4.4l-0.1-0.1l9.8-7.7l9.8,12.5c0.7-3.6,1.2-6.8,1.6-9.5l-10.3-13.1L368.1,261.7z
				 M360.8,322.1l-12.2-15.5L332.9,319l-12.3-15.7L305,315.4l-12.2-15.6L277.3,312l-12.2-15.5l-15.7,12.4l-7.5-9.5
				c0.6,4.6,1.3,9.3,1.9,14l4.2,5.4l0.2-0.1l0.1,0.2l15.6-12.2l7.7,9.8l-0.1,0.1l4.4,5.6l0.1-0.1l0.1,0.1l5.6-4.4l-0.1-0.1l9.8-7.7
				l7.8,9.9l4.4,5.6l15.6-12.2l12.2,15.6l0.2-0.1l0.1,0.2l15.6-12.2l7.7,9.8l-0.1,0.1l4.4,5.6l0.1-0.1l0.1,0.1l5.6-4.4l0-0.1
				l9.8-7.7l5,6.4c0.8-3,1.5-5.9,2.3-8.7l-6.1-7.7L360.8,322.1z M364.5,291.9l-12.2-15.5l-15.7,12.4L324.2,273l-15.6,12.2
				l-12.2-15.6l-15.5,12.2l-12.2-15.5L253,278.6l-12.4-15.7l-3.5,2.7c0.3,2.8,0.7,5.5,1.1,8.3l1.2-0.9l12.2,15.6l0.2-0.1l0.1,0.2
				l15.6-12.2l7.7,9.8l-0.1,0.1l4.4,5.6l0.1-0.1l0.1,0.1l5.6-4.4l-0.1-0.1l9.8-7.7l7.8,9.9l4.4,5.6l15.6-12.2l12.2,15.6l0.2-0.1
				l0.1,0.2l15.6-12.2l7.7,9.9l-0.1,0l4.4,5.6l0.1-0.1l0.1,0.1l5.6-4.4l-0.1-0.1l9.9-7.7l7.9,10c0.7-3.2,1.4-6.2,2-9.1l-8.6-11
				L364.5,291.9z M259,228.1l0.2-0.1l0.1,0.2l15.6-12.2l7.7,9.8l-0.1,0.1l4.4,5.6l0.1-0.1l0.1,0.1l5.6-4.4l-0.1-0.1l9.8-7.7l7.8,9.9
				l4.4,5.6l15.6-12.2l12.2,15.6l0.2-0.1l0.1,0.2l15.6-12.2l7.7,9.8l-0.1,0.1l4.4,5.6l0.1-0.1l0.1,0.1l5.6-4.4l-0.1-0.1l9.9-7.7
				l10.3,13.2c0.1-3.3,0.1-7.4-0.3-12l-8.8-11.2l-15.5,12.2l-12.2-15.5l-15.7,12.4l-12.4-15.7L316,224.8l-12.2-15.6l-15.5,12.2
				l-12.2-15.5l-15.7,12.4L248,202.5l-13.2,10.3c-0.2,3.1-0.4,6.3-0.4,9.4l12.4-9.7L259,228.1z M323.1,518.1l-15.7,12.3L295,514.7
				L279.4,527l-12.2-15.6l-15.5,12.2l-12.2-15.5l-6.6,5.2c0.7,2.5,1.5,4.9,2.4,7.2l2.9-2.3l7.7,9.9L246,528l4.4,5.6l0.1-0.1l0.1,0.1
				l5.6-4.4l-0.1-0.1l9.9-7.7l7.8,9.9l4.4,5.6l15.6-12.2l12.2,15.6l0.2-0.1l0.1,0.2l15.6-12.2l7.7,9.8l-0.1,0.1l1.1,1.3
				c2.2-2,4.2-4.3,6.1-6.9l-1.4,1.1L323.1,518.1z M357.2,352.3L345,336.8l-15.7,12.4l-12.3-15.7l-15.6,12.2l-12.2-15.6l-15.5,12.2
				l-12.2-15.5l-15.1,11.9c0.2,2.9,0.4,5.8,0.5,8.7l13.4-10.5l7.7,9.8l-0.1,0.1l4.4,5.6l0.1-0.1l0.1,0.1l5.6-4.4l0-0.1l9.8-7.7
				l7.8,9.9l4.4,5.6l15.6-12.2l12.2,15.6l0.2-0.1l0.1,0.2l15.6-12.2l7.7,9.8l-0.1,0.1l4.4,5.6l0.1-0.1l0.1,0.1l5.6-4.4l-0.1-0.1
				l9.8-7.7l2,2.6c0.7-3,1.4-6,2.1-9l-2.9-3.7L357.2,352.3z M287,548.4c2.7,0.3,5.2,0.6,7.6,0.7l-3.2-4.1L287,548.4z M326.7,487.9
				L311,500.3l-12.3-15.7l-15.6,12.2l-12.2-15.6l-15.5,12.2l-12.2-15.5l-12.3,9.7c-0.1,3.2-0.2,6.2-0.1,9.2l11.2-8.8l7.7,9.8
				l-0.1,0.1l4.4,5.6l0.1-0.1l0,0.1l5.6-4.4l-0.1-0.1l9.9-7.7l7.8,9.9l4.4,5.6l15.6-12.2l12.2,15.6l0.2-0.1l0.1,0.2l15.6-12.2
				l7.7,9.8l-0.1,0.1l4.4,5.6l0.1-0.1l0.1,0.1l5.6-4.4l-0.1-0.1l3.8-3c0.8-3.4,1.5-7,2.1-10.8l-10.3,8.1L326.7,487.9z M353.5,382.5
				L341.3,367l-15.7,12.3l-12.4-15.7l-15.6,12.2l-12.2-15.6L270,372.5L257.8,357l-10.6,8.4c0,3.1-0.1,6.2-0.3,9.4l9.7-7.6l7.7,9.9
				l-0.1,0.1l4.4,5.6l0.1-0.1l0.1,0.1l5.6-4.4l-0.1-0.1l9.9-7.7l7.8,9.9l4.4,5.6l15.6-12.2l12.2,15.6l0.2-0.1l0.1,0.2l15.6-12.2
				l7.7,9.9l-0.1,0.1l4.4,5.6l0.1-0.1l0.1,0.1l5.6-4.4l0-0.1l9.8-7.7c0.6-3.2,1.2-6.3,1.8-9.4l-0.6-0.7L353.5,382.5z"/>
			<path fill="#044437" d="M307.8,202.9c0,0-4.3-5.2-7.4-7c-3.1-1.8-6.1-2.2-8,2c-1.9,4.2-2.2,5.9,1.1,7.9l7.8,7.8L307.8,202.9z"/>
			<path fill="#044437" d="M306.8,223c0,0,16.1,0.2,29.9,13.8c13.8,13.6,34,40.6,30.9,56.4c-3.1,15.9-24.4,60.8-30.2,80.4
				c-5.8,19.6-14.2,50.3-2.4,62.5c5.3,5.1,8.8-5.2,12.8-27.9c4-22.8,13.4-55.8,18.5-72.4c5.1-16.6,24-68.9-22.4-114
				c-37.4-34.7-56.2-14.5-75.5,3c-19.2,17.5-42.8,60.4-33.9,107c6.5,29.3,12.1,39.7,17.1,59.2c5,19.5,12.2,34.5,16.9,32.6
				c4.7-1.9,7.5-15.7-0.1-40.5c-7.7-24.8-34.7-75.7-26.4-95.4c8.3-19.7,28-41.1,34.8-49.1C283.7,230.6,296.8,223.2,306.8,223z"/>
		</g>
	</g>
</g>
<g id="Slipper_2">
</g>
<g id="Masterpiece_Container">
</g>
<g id="BTN:_Create">
</g>
<g id="BTN:_Create_LOAD" display="none">
</g>
<g id="BTN:_Signup">
</g>
<g id="Logo">
</g>
<g id="Modal:_Login" display="none">
</g>
<g id="Modal:_LoadLogin" display="none">
</g>
<g id="Modal:_LoadLogin_2" display="none">
</g>
<g id="Keyboard" display="none">
</g>
</svg>
