<?xml version="1.0" encoding="utf-8"?>
<!-- Generator: Adobe Illustrator 18.1.0, SVG Export Plug-In . SVG Version: 6.00 Build 0)  -->
<!DOCTYPE svg PUBLIC "-//W3C//DTD SVG 1.1//EN" "http://www.w3.org/Graphics/SVG/1.1/DTD/svg11.dtd">
<svg version="1.1" id="Layer_1" xmlns="http://www.w3.org/2000/svg" xmlns:xlink="http://www.w3.org/1999/xlink" x="0px" y="0px"
	 viewBox="0 0 180.9 37.4" enable-background="new 0 0 180.9 37.4" xml:space="preserve">
<g>
	<g>
		<path fill="#A93439" d="M113.8,22.3c0,0,21.4-0.8,35-1.3c13.6-0.5,30-1,31.3,1.3l0.8,9.8c0,0-75.1,4.9-94.2,5.2
			c-19,0.3-73.4,0.1-86.7-5.9c0,0,0.7-6.7,0-9.9c0,0-2.9-1.9,29-0.9C60.9,21.6,90.2,23.8,113.8,22.3z"/>
		<path fill="#FF6B00" d="M29,20.6c31.9,1,61.1,3.2,84.8,1.7c0,0,21.4-0.8,35-1.3c13.6-0.5,30-1,31.3,1.3c0,0-12.5,1.6-41.3,2.2
			c-28.7,0.6-70.8,2.9-98.4,1.6c-27.6-1.3-33.1-2.6-40.4-4.7C0.1,21.5-2.8,19.7,29,20.6z"/>
		<path fill="#86412B" d="M138.9,24.6c28.7-0.6,41.3-2.2,41.3-2.2l0.8,9.8c0,0-75.1,4.9-94.2,5.2c-19,0.3-73.4,0.1-86.7-5.9
			c0,0,0.7-6.7,0-9.9c7.3,2.1,12.8,3.4,40.4,4.7C68.1,27.4,110.1,25.2,138.9,24.6z"/>
	</g>
	<path fill="#062E2C" d="M70.2,9.4C59.2,5.5,47.6,1,40.8,0.3c0.4-0.1,0.8-0.1,1.2-0.2c4.5-0.5,14.2,1.4,24.3,5.1
		c10.1,3.6,21.2,9,34.2,11.1c9.8,1.5,15.8,3.8,18.2,4.6c0,0-9.6-2.4-23.9-4.6C88.8,15.3,79.4,12.6,70.2,9.4z"/>
	<path fill="#044437" d="M29.8,5.3c1.4-1.6,6.7-4.2,11-5C47.6,1,59.2,5.5,70.2,9.4c9.2,3.2,18.6,5.9,24.5,6.8
		c14.4,2.2,23.9,4.6,23.9,4.6s9.8,2.9,10.7,3.2c0,0-4.6,0.7-7.9,0.2c0,0-6.6-1.1-13.2-1.3c-6.6-0.2-22.2-1.6-32.3-3.8
		c-10.1-2.2-20-5.6-39.6-13.9C31.7,3.3,29.8,5.3,29.8,5.3z"/>
	<path fill="#062E2C" d="M30.2,8c0.5-1.3-1.9-1-0.4-2.8c0,0,1.9-1.9,6.5,0c0,0-1.9,1.1-4.2,17c0,0-1.8,0.6-5.1,0
		C27,22.2,28,13.1,30.2,8z"/>
</g>
</svg>
